<svg xmlns="http://www.w3.org/2000/svg" xmlns:xlink="http://www.w3.org/1999/xlink" version="1.1" id="Layer_1" x="0px" y="0px" viewBox="0 0 162 97" style="enable-background:new 0 0 256.9 38.8;" xml:space="preserve">
<path d="M82.4631 16.1838H90.9212V24.948H82.4631V16.1838ZM91.6483 15.0356H81.3149V26.0962H92.0693V15.0356H91.6483Z" fill="#815D45"/>
	<path d="M70.7902 16.1838H79.2483V24.948H70.7902V16.1838ZM79.9755 15.0356H69.6421V26.0962H80.3964V15.0356H79.9755Z" fill="#815D45"/>
	<path d="M81.353 40.4098V27.0146H92.1074V40.4098H90.9592V28.1628H82.4629V40.4098H81.353Z" fill="#815D45"/>
	<path d="M69.6421 40.4098V27.0146H80.3964V40.4098H79.2483V28.1628H70.7902V40.4098H69.6421Z" fill="#815D45"/>
	<path fill-rule="evenodd" clip-rule="evenodd" d="M99.6471 9.37139H94.2125L80.8557 3.47754L67.4989 9.37139H62.1025L62.3704 10.0985H67.5754L80.8557 4.28125L94.0977 10.0985H99.3792L99.6471 9.37139Z" fill="#815D45"/>
	<path fill-rule="evenodd" clip-rule="evenodd" d="M99.1112 10.864H62.6382L63.1357 12.3566H98.6136L99.1112 10.864Z" fill="#815D45"/>
	<path fill-rule="evenodd" clip-rule="evenodd" d="M61.2603 6.88369H66.3887L80.8554 0.49231L95.3604 6.88369H100.489L99.9147 8.56764H94.7098L80.8554 2.52071L67.0393 8.56764H61.8343L61.2603 6.88369Z" fill="#815D45"/>
	<path fill-rule="evenodd" clip-rule="evenodd" d="M70.1777 10.0985L80.8555 5.42932L91.5716 10.0985H87.7445L80.8555 7.26637L74.0049 10.0985H70.1777Z" fill="#815D45"/>
	<path d="M96.7766 13.2751H94.8247V40.4098H96.7766V13.2751Z" fill="#815D45"/>
	<path d="M94.2125 13.2751H93.4854V40.4098H94.2125V13.2751Z" fill="#815D45"/>
	<path d="M66.8864 13.2751H64.9346V40.4098H66.8864V13.2751Z" fill="#815D45"/>
	<path d="M68.2643 13.2751H67.5371V40.4098H68.2643V13.2751Z" fill="#815D45"/>
	<path d="M100.336 56.9049H61.3755V60.1197H100.336V56.9049Z" fill="#815D45"/>
	<path d="M100.336 55.7185H61.3755V56.4457H100.336V55.7185Z" fill="#815D45"/>
	<path d="M96.6618 45.4999H95.2075V54.6851H96.6618V45.4999Z" fill="#815D45"/>
	<path d="M93.9446 45.4999H92.4902V54.6851H93.9446V45.4999Z" fill="#815D45"/>
	<path d="M91.1892 45.4999H89.7349V54.6851H91.1892V45.4999Z" fill="#815D45"/>
	<path d="M88.4333 45.4999H86.979V54.6851H88.4333V45.4999Z" fill="#815D45"/>
	<path d="M85.7161 45.4999H84.2617V54.6851H85.7161V45.4999Z" fill="#815D45"/>
	<path d="M82.9607 45.4999H81.5063V54.6851H82.9607V45.4999Z" fill="#815D45"/>
	<path d="M80.2434 45.4999H78.7891V54.6851H80.2434V45.4999Z" fill="#815D45"/>
	<path d="M77.4875 45.4999H76.0332V54.6851H77.4875V45.4999Z" fill="#815D45"/>
	<path d="M74.7322 45.4999H73.2778V54.6851H74.7322V45.4999Z" fill="#815D45"/>
	<path d="M72.0149 45.4999H70.5605V54.6851H72.0149V45.4999Z" fill="#815D45"/>
	<path d="M69.2595 45.4999H67.8052V54.6851H69.2595V45.4999Z" fill="#815D45"/>
	<path d="M66.5422 45.4999H65.0879V54.6851H66.5422V45.4999Z" fill="#815D45"/>
	<path d="M99.4172 45.4999H97.9629V54.6851H99.4172V45.4999Z" fill="#815D45"/>
	<path d="M63.7863 45.4999H62.332V54.6851H63.7863V45.4999Z" fill="#815D45"/>
	<path fill-rule="evenodd" clip-rule="evenodd" d="M59.5 41.3284H102.25L101.254 43.2802H60.4951L59.5 41.3284Z" fill="#815D45"/>
	<path fill-rule="evenodd" clip-rule="evenodd" d="M60.6479 43.7777H101.101L100.757 44.5049H60.9541L60.6479 43.7777Z" fill="#815D45"/>
	<path d="M147.027 68.8457H143.353V67.3531H147.027V68.8457ZM161.686 75.8877L161.647 78.2988C161.647 80.2507 161.226 81.8581 160.384 83.0445C159.542 84.2309 158.318 85.0347 156.672 85.4557C155.83 85.6853 154.911 85.8001 153.916 85.8001C153.036 85.8001 152.118 85.6853 151.199 85.4939C150.281 85.2643 149.477 84.8433 148.711 84.1927C147.908 83.4655 147.372 82.6618 147.066 81.8198C146.798 80.9396 146.645 79.868 146.645 78.605V75.8877V71.6778V69.4198V68.2716L146.53 67.3531L147.831 67.4297L149.171 67.3531L149.018 68.3099V69.4963L148.903 71.7161V75.926V78.4902C148.903 80.442 149.4 81.9346 150.319 82.9297C151.276 83.9248 152.653 84.4223 154.414 84.4223C157.284 84.4223 159.045 83.2359 159.734 80.8248C159.81 80.5569 159.849 80.1359 159.849 79.6001C159.849 79.2173 159.81 78.605 159.772 77.7248C159.734 76.8445 159.695 76.2322 159.695 75.8877H161.686ZM141.555 74.4334V75.926H135.661V74.4334H141.555ZM134.551 84.805V83.3124L134.666 81.0161V78.5285V74.4334V71.9457L134.551 69.6494V68.5395L134.436 67.5827L135.852 67.6593L137.077 67.5827L136.962 68.5778V69.726V71.9457L136.924 74.5099V78.5285L136.962 81.0544V83.2742V84.7285L137.077 85.6853L135.814 85.647L134.398 85.6853L134.551 84.805ZM129.652 85.7235L128.772 85.6853L127.815 85.7618L127.853 84.8433V83.6951L128.006 81.3223V77.2655C128.006 76.1939 127.968 75.1988 127.892 74.3568C127.815 73.5149 127.7 72.826 127.547 72.3284C126.897 69.9556 125.136 68.7309 122.266 68.7309C118.592 68.7309 116.755 70.721 116.755 74.7013V77.2655V81.4371L116.869 83.6569V84.8433L116.984 85.8001L115.683 85.7618L114.305 85.8384L114.382 84.9198V83.7717V81.3988L114.497 77.189L114.382 74.4717C114.382 73.2087 114.535 72.1371 114.803 71.2568C115.071 70.3766 115.645 69.5729 116.448 68.884C117.214 68.2334 118.056 67.8124 118.936 67.5827C119.855 67.3531 120.773 67.2766 121.653 67.2766C122.648 67.2766 123.605 67.3914 124.447 67.621C126.055 68.042 127.279 68.8457 128.16 70.0321C129.001 71.2186 129.461 72.826 129.461 74.7778V77.189V81.2075L129.537 83.5803L129.614 84.805L129.652 85.7235ZM109.062 69.4198L108.717 70.4531L108.411 70.4914L108.029 69.9173C107.263 68.9605 106.306 68.463 105.12 68.463C104.24 68.463 103.474 68.7309 102.9 69.2667C102.288 69.8025 102.02 70.5297 102.02 71.4865C102.02 72.1371 102.135 72.6346 102.326 73.0173C102.556 73.4001 102.862 73.7828 103.321 74.0889C103.78 74.3951 104.278 74.663 104.852 74.8926L107.148 75.7729C107.531 75.9643 107.875 76.1173 108.182 76.3087C108.45 76.5001 108.756 76.7297 109.024 76.9976C109.406 77.3803 109.713 77.8778 109.942 78.4902C110.134 79.0643 110.21 79.6383 110.21 80.1741C110.21 80.863 110.095 81.5137 109.827 82.1643C109.215 83.7717 108.105 84.8816 106.498 85.5322C105.732 85.8384 104.852 85.9915 103.857 85.9915C102.938 85.9915 102.096 85.8384 101.293 85.5322C100.833 85.3026 100.413 85.0729 100.068 84.7668L99.6088 84.384L99.915 83.389L100.03 82.4704L100.336 82.4322C101.522 84.0013 102.9 84.805 104.393 84.805C106.038 84.805 107.148 84.1161 107.761 82.7001C107.99 82.2408 108.067 81.705 108.067 81.0927C108.067 80.5951 107.99 80.1741 107.799 79.7914C107.646 79.4087 107.378 79.026 106.957 78.7198C106.459 78.2988 105.885 77.9544 105.273 77.6865L103.053 76.8062C102.364 76.5383 101.79 76.1939 101.331 75.7729C100.872 75.3902 100.489 74.8544 100.183 74.1655C100.068 73.821 99.9532 73.4766 99.8767 73.1704C99.8002 72.8642 99.7619 72.5198 99.7619 72.1371C99.7619 71.0272 100.068 70.0704 100.719 69.2284C101.369 68.3865 102.173 67.8124 103.206 67.5062C103.819 67.3148 104.469 67.2383 105.196 67.2383C106.651 67.2383 107.875 67.5827 108.871 68.3099L109.177 68.5395L109.062 69.4198ZM92.5668 84.384L95.9347 86.068L97.7718 86.7569L96.5471 87.331L95.5137 88.2112L94.0211 86.9482L90.6915 84.8433L92.5668 84.384ZM81.9655 67.6593L83.2668 67.5827L83.1137 68.5395V69.726L83.0754 71.9457V76.1556V78.7198C83.0754 80.6717 83.5347 82.1643 84.4915 83.1593C85.4482 84.1544 86.7878 84.6519 88.5865 84.6519C91.4569 84.6519 93.2174 83.4655 93.868 81.0544C94.0211 80.5569 94.1359 79.868 94.2125 79.026C94.289 78.184 94.3273 77.189 94.3273 76.1173V72.0605L94.1742 69.6877V68.5395L94.1359 67.621L95.0927 67.6976L95.973 67.621L95.8964 68.5778L95.8199 69.8025L95.7433 72.1754V76.1939V78.605C95.7433 80.5569 95.3224 82.1643 94.4804 83.3507C93.6384 84.5371 92.4137 85.3408 90.768 85.7618C89.926 85.9914 89.0075 86.1063 88.0125 86.1063C87.1322 86.1063 86.2137 85.9915 85.2952 85.8001C84.3766 85.5705 83.5729 85.1495 82.8075 84.4989C82.0038 83.7717 81.468 82.968 81.1618 82.126C80.8939 81.2458 80.7408 80.1741 80.7408 78.9112L80.7791 76.1939L80.7408 71.984V69.726V68.5778L80.626 67.6593H81.9655ZM61.8728 68.8457H58.1988V67.3531H61.8728V68.8457ZM76.4927 75.8877L76.4544 78.2988C76.4544 80.2507 76.0334 81.8581 75.1914 83.0445C74.3494 84.2309 73.1247 85.0347 71.4791 85.4557C70.6371 85.6853 69.7186 85.8001 68.7235 85.8001C67.8432 85.8001 66.9247 85.6853 66.0062 85.4939C65.0877 85.2643 64.284 84.8433 63.5185 84.1927C62.7148 83.4655 62.179 82.6618 61.8728 81.8198C61.6049 80.9396 61.4519 79.868 61.4519 78.605V75.8877V71.6778V69.4198V68.2716L61.337 67.3531L62.6383 67.4297L63.9778 67.3531L63.8247 68.3099V69.4963L63.7099 71.7161V75.926V78.4902C63.7099 80.442 64.2074 81.9346 65.1259 82.9297C66.0827 83.9248 67.4605 84.4223 69.221 84.4223C72.0914 84.4223 73.8519 83.2359 74.5408 80.8248C74.6173 80.5569 74.6556 80.1359 74.6556 79.6001C74.6556 79.2173 74.6173 78.605 74.5791 77.7248C74.5408 76.8445 74.5025 76.2322 74.5025 75.8877H76.4927ZM53.2234 76.8062C53.2234 76.0791 53.2234 75.4284 53.2617 74.8161C53.3 74.2038 53.3 73.6297 53.3382 73.0939C53.3382 72.5581 53.3 72.1754 53.2234 71.8692C52.5728 69.4963 50.8123 68.2716 47.9419 68.2716C44.2678 68.2716 42.4308 70.2618 42.4308 74.242V76.8062V81.0161L42.5456 83.2359V84.4223L42.6604 85.3791L41.3592 85.3026L39.9814 85.3791L40.0579 84.4606V83.3124V81.0544L40.1728 76.8445L40.0579 74.1272C40.0579 72.8642 40.211 71.7926 40.4789 70.9124C40.7468 70.0321 41.3209 69.2284 42.1246 68.5395C42.8901 67.8889 43.6938 67.4679 44.6123 67.2383C45.5308 67.0087 46.4111 66.9321 47.3296 66.9321C48.3246 66.9321 49.2432 67.0469 50.0851 67.2766C51.6926 67.6976 52.9173 68.5013 53.7592 69.6877C54.6012 70.8741 55.0605 72.4815 55.0605 74.4334V76.8445H53.2234V76.8062ZM32.7098 71.7161V73.2087H21.2282V71.7161H32.7098ZM34.6234 75.6964L34.5851 78.1075C34.5851 80.0593 34.1641 81.6667 33.3221 82.8532C32.4801 84.0396 31.2554 84.8433 29.6098 85.2643C28.7678 85.4939 27.8493 85.6087 26.8542 85.6087C25.9739 85.6087 25.0554 85.4939 24.1369 85.3026C23.2184 85.0729 22.4147 84.6519 21.6492 84.0013C20.8455 83.2742 20.3097 82.4705 20.0035 81.6285C19.7356 80.7482 19.5826 79.6766 19.5826 78.4137L19.6591 75.6964L19.5826 71.4865V69.2284V68.0803L19.4677 67.1618L20.8455 67.2383L22.1468 67.1618L22.0319 68.1185V69.305L21.9171 71.5247V75.7346V78.2988C21.9171 80.2507 22.3764 81.7433 23.3332 82.7384C24.29 83.7334 25.6295 84.2309 27.4283 84.2309C30.2986 84.2309 32.0591 83.0445 32.7098 80.6334C32.7863 80.3655 32.8246 79.9445 32.8246 79.4087C32.8246 79.026 32.7863 78.4136 32.748 77.5334C32.7098 76.6531 32.6715 76.0408 32.6715 75.6964H34.6234ZM15.9467 84.0779V85.5705L12.2727 85.647V84.1544L15.9467 84.0779ZM10.5887 81.0927C9.67017 81.3223 8.75165 81.4371 7.83313 81.4371C6.83807 81.4371 5.91954 81.3223 5.07756 81.0927C3.47015 80.6717 2.20718 79.868 1.3652 78.6815C0.484954 77.4569 0.0639648 75.8877 0.0639648 73.9359V71.5247H1.97755C1.97755 72.2519 1.97755 72.9025 1.93928 73.5531C1.90101 74.1655 1.86274 74.7396 1.86274 75.2754C1.86274 75.8112 1.90101 76.1939 1.97755 76.5001C2.24545 77.5334 2.93435 78.3371 3.96768 78.9877C5.00102 79.6383 6.34053 79.9445 7.94795 79.9445C8.78992 79.9445 9.70845 79.8297 10.7035 79.6383L10.5887 81.0927ZM13.1529 85.647L11.7368 85.5705L10.5122 85.647L10.627 84.6519V83.5038V81.284L10.6652 78.7198V74.7013L10.627 72.1754V69.9173V68.4247L10.5122 67.4679L11.7751 67.5445L13.1912 67.5062L13.0764 68.463V69.9556V72.2519L12.9998 74.7396V78.8346V81.3223L13.0764 83.6186V84.7285L13.1529 85.647Z" fill="#604431"/>
	<path d="M117.826 95.2532H114.649V96.4013H114.037V93.4927C114.037 92.9186 114.228 92.4593 114.573 92.1149C114.917 91.7322 115.338 91.5791 115.836 91.5791C116.333 91.5791 116.793 91.7705 117.137 92.1532C117.482 92.5359 117.673 92.9952 117.673 93.531V93.9519H117.061V93.4927C117.061 93.1482 116.946 92.8803 116.754 92.6124C116.525 92.3445 116.219 92.1915 115.874 92.1915C115.53 92.1915 115.224 92.3063 114.994 92.5742C114.764 92.8421 114.649 93.1482 114.649 93.5692V94.7939H117.826V95.2532ZM101.828 91.5791V92.1532H101.025V94.6026C101.025 95.1001 100.833 95.5594 100.489 95.9038C100.144 96.2865 99.7234 96.4396 99.2259 96.4396C98.7284 96.4396 98.3457 96.2865 97.9629 95.9421C97.5802 95.5594 97.3889 95.1001 97.3889 94.526V91.5791H98.0012V94.5643C98.0012 94.9853 98.116 95.3297 98.3839 95.5594C98.6136 95.789 98.8815 95.9038 99.2259 95.9038C99.5321 95.9038 99.8 95.789 100.03 95.5594C100.298 95.2915 100.412 94.9853 100.412 94.6408V91.6174H101.828V91.5791ZM85.1802 93.3013H83.9172V96.4013H83.3049V91.6174H83.9172V92.7655H85.1419V93.3013H85.1802ZM80.2431 96.4013H79.6308V93.3779C79.6308 92.9951 79.516 92.689 79.2481 92.4593C79.0184 92.2297 78.7505 92.1149 78.4061 92.1149C78.0999 92.1149 77.7937 92.2297 77.5641 92.4593C77.2962 92.7272 77.1814 93.0334 77.1814 93.4544V96.4396H76.569V93.4927C76.569 92.9186 76.7604 92.4211 77.1431 92.0766C77.4876 91.7322 77.9085 91.5791 78.4061 91.5791C78.9036 91.5791 79.3246 91.7705 79.669 92.1149C80.0135 92.4976 80.2048 92.9186 80.2048 93.4161V96.4013H80.2431ZM63.327 92.9186H63.9394V96.4013H63.327V94.7174C63.2122 94.9087 63.0208 95.0618 62.7912 95.1384C62.5616 95.2149 62.3702 95.2532 62.1406 95.2532C61.643 95.2532 61.1838 95.0618 60.8393 94.6791C60.4949 94.2964 60.3035 93.8371 60.3035 93.3013V91.5791H60.9159V93.3779C60.9159 93.7223 61.0307 94.0285 61.2221 94.2581C61.4517 94.526 61.7579 94.6791 62.1023 94.6791C62.4468 94.6791 62.7529 94.5643 62.9443 94.2964C63.1739 94.0285 63.2887 93.7223 63.2887 93.3013V92.9186H63.327ZM46.7936 95.2149C46.8701 95.0236 46.9084 94.8322 46.9084 94.6408V91.6174H47.5208V94.6408C47.5208 94.8322 47.4825 94.9853 47.4442 95.1384C47.406 95.2915 47.3294 95.4445 47.2529 95.5976C47.3677 95.6742 47.4825 95.7507 47.559 95.8273C47.6739 95.9038 47.7887 95.9421 47.9035 95.9803L47.6739 96.5544C47.5208 96.5162 47.3677 96.4396 47.2146 96.3631C47.0998 96.2865 46.9467 96.21 46.8319 96.0952C46.6788 96.2482 46.4874 96.3631 46.2961 96.4396C46.1047 96.5161 45.8751 96.5544 45.6837 96.5544C45.1862 96.5544 44.8035 96.4013 44.4208 96.0569C44.038 95.7124 43.8467 95.2532 43.8467 94.7174V91.6939H44.459V94.7174C44.459 95.1001 44.5738 95.4063 44.8035 95.6359C45.0331 95.8655 45.301 95.9803 45.6455 95.9803C45.9134 95.9803 46.143 95.9038 46.3343 95.7507C46.2195 95.6742 46.1047 95.5976 46.0282 95.5594C45.9134 95.5211 45.7985 95.4828 45.6837 95.4445L45.8751 94.8705C46.0282 94.9087 46.143 94.947 46.2961 95.0236C46.5257 95.0236 46.6405 95.1001 46.7936 95.2149Z" fill="#815D45"/>
</svg>

