<svg xmlns="http://www.w3.org/2000/svg" xmlns:xlink="http://www.w3.org/1999/xlink" version="1.1" id="Layer_1" x="0px" y="0px" viewBox="0 0 25 25" >
    <g clip-path="url(#clip0)">
        <path d="M11.3335 0.0131836C5.50586 0.0131836 0.764404 4.75464 0.764404 10.5823C0.764404 16.4102 5.50586 21.1514 11.3335 21.1514C17.1615 21.1514 21.9026 16.4102 21.9026 10.5823C21.9026 4.75464 17.1615 0.0131836 11.3335 0.0131836ZM11.3335 19.2002C6.58164 19.2002 2.71562 15.3342 2.71562 10.5823C2.71562 5.83046 6.58164 1.9644 11.3335 1.9644C16.0854 1.9644 19.9514 5.83042 19.9514 10.5823C19.9514 15.3341 16.0854 19.2002 11.3335 19.2002Z" fill="#F45236"/>
        <path d="M24.4784 22.3477L18.8849 16.7542C18.5037 16.3731 17.8865 16.3731 17.5053 16.7542C17.1242 17.1351 17.1242 17.753 17.5053 18.1338L23.0989 23.7273C23.2894 23.9178 23.5389 24.0131 23.7886 24.0131C24.038 24.0131 24.2878 23.9178 24.4784 23.7273C24.8595 23.3465 24.8595 22.7285 24.4784 22.3477Z" fill="#F45236"/>
    </g>
    <defs>
        <clipPath id="clip0">
            <rect x="0.764404" y="0.0131836" width="24" height="24" fill="white"/>
        </clipPath>
    </defs>
</svg>


